{
	"id": "1e68c6cb-1e57-4536-b684-7cf29b12e1c5",
	"name": "HEZZL",
	"values": [
		{
			"key": "email",
			"value": "test@hezzl.com",
			"type": "default",
			"enabled": true
		},
		{
			"key": "password",
			"value": "\"123456\"",
			"type": "default",
			"enabled": true
		},
		{
			"key": "baseUrl",
			"value": "https://api-prod.hezzl.com/",
			"type": "default",
			"enabled": true
		},
		{
			"key": "campaignId",
			"value": "145602",
			"type": "default",
			"enabled": true
		},
		{
			"key": "accessToken",
			"value": "string",
			"type": "default",
			"enabled": true
		},
		{
			"key": "timeZone",
			"value": "string",
			"type": "default",
			"enabled": true
		}
	],
	"_postman_variable_scope": "environment",
	"_postman_exported_at": "2024-02-28T18:11:40.900Z",
	"_postman_exported_using": "Postman/10.23.8"
}